[{
  "package_name": "primary 1",
  "package_icon": "fa-bars",
  "parent": [{
    "parent_name": "book 1",
    "parent_text": "book1",
    "parent_color": "#937760",
    "parent_icon": "fa-puzzle-piece",
    "parent_list": true,
    "child": [{
      "child_name": "unit 1",
      "child_text": "unit1",
      "child_color": "#e5a96b",
      "child_icon": "fa-files-o",
      "child_list": true,
      "child": [{
        "child_name": "group 1",
        "child_text": "group1",
        "child_color": "#ffffe6",
        "child_icon": "fa-pie-chart",
        "child_list": true,
        "child": [{
          "child_name": "page 1",
          "child_text": "page1",
          "child_color": "#902056",
          "child_icon": "page1.png",
          "child_list": true
        }, {
          "child_name": "page 2",
          "child_text": "page2",
          "child_color": "#4fab5b",
          "child_icon": "page2.png",
          "child_list": true
        }, {
          "child_name": "page 3",
          "child_text": "page3",
          "child_color": "#fa8072",
          "child_icon": "page3.png",
          "child_list": true
        }, {
          "child_name": "page 4",
          "child_text": "page2",
          "child_color": "#4fab5b",
          "child_icon": "page2.png",
          "child_list": true
        }, {
          "child_name": "page 5",
          "child_text": "page2",
          "child_color": "#4fab5b",
          "child_icon": "page2.png",
          "child_list": true
        }, {
          "child_name": "page 6",
          "child_text": "page2",
          "child_color": "#4fab5b",
          "child_icon": "page2.png",
          "child_list": true
        }, {
          "child_name": "page 7",
          "child_text": "page2",
          "child_color": "#4fab5b",
          "child_icon": "page2.png",
          "child_list": true
        }, {
          "child_name": "page 8",
          "child_text": "page2",
          "child_color": "#4fab5b",
          "child_icon": "page2.png",
          "child_list": true
        }, {
          "child_name": "page 9",
          "child_text": "page2",
          "child_color": "#4fab5b",
          "child_icon": "page2.png",
          "child_list": true
        }, {
          "child_name": "page 10",
          "child_text": "page2",
          "child_color": "#4fab5b",
          "child_icon": "page2.png",
          "child_list": true
        }, {
          "child_name": "page 11",
          "child_text": "page2",
          "child_color": "#4fab5b",
          "child_icon": "page2.png",
          "child_list": true
        }, {
          "child_name": "page 12",
          "child_text": "page2",
          "child_color": "#4fab5b",
          "child_icon": "page2.png",
          "child_list": true
        }]
      }]
    }, {
      "child_name": "unit2",
      "child_text": "unit2",
      "child_color": "#ffe4e1",
      "child_icon": "fa-files-o",
      "child_list": false,
      "child": [{
        "child_name": "group1",
        "child_text": "group1",
        "child_color": "#d3ffce",
        "child_icon": "fa-pie-chart",
        "child_list": false,
        "child": [{
          "child_name": "page1",
          "child_text": "page1",
          "child_color": "#b0e0e6",
          "child_icon": "page1.png",
          "child_list": false
        }, {
          "child_name": "page2",
          "child_text": "page2",
          "child_color": "#c6e2ff",
          "child_icon": "page2.png",
          "child_list": false
        }, {
          "child_name": "page3",
          "child_text": "page3",
          "child_color": "#fa8072",
          "child_icon": "page3.png",
          "child_list": false
        }]
      }, {
        "child_name": "group2",
        "child_text": "group2",
        "child_color": "#ffb6c1",
        "child_icon": "fa-pie-chart",
        "child_list": false,
        "child": [{
          "child_name": "page1",
          "child_text": "page1",
          "child_color": "#ffc3a0",
          "child_icon": "page1.png",
          "child_list": false
        }, {
          "child_name": "page2",
          "child_text": "page2",
          "child_color": "#ffdab9",
          "child_icon": "page2.png",
          "child_list": false
        }, {
          "child_name": "page3",
          "child_text": "page3",
          "child_color": "#cbbeb5",
          "child_icon": "page3.png",
          "child_list": false
        }]
      }]
    }]
  }, {
    "parent_name": "book1",
    "parent_text": "book1",
    "parent_color": "#937760",
    "parent_icon": "fa-puzzle-piece",
    "parent_list": false,
    "child": [{
      "child_name": "unit1",
      "child_text": "unit1",
      "child_color": "#e5a96b",
      "child_icon": "fa-files-o",
      "child_list": false,
      "child": [{
        "child_name": "group1",
        "child_text": "group1",
        "child_color": "#ffffe6",
        "child_icon": "fa-pie-chart",
        "child_list": false,
        "child": [{
          "child_name": "page1",
          "child_text": "page1",
          "child_color": "#902056",
          "child_icon": "page1.png",
          "child_list": false
        }, {
          "child_name": "page2",
          "child_text": "page2",
          "child_color": "#4fab5b",
          "child_icon": "page2.png",
          "child_list": false
        }, {
          "child_name": "page3",
          "child_text": "page3",
          "child_color": "#fa8072",
          "child_icon": "page3.png",
          "child_list": false
        }]
      }]
    }, {
      "child_name": "unit2",
      "child_text": "unit2",
      "child_color": "#ffe4e1",
      "child_icon": "fa-files-o",
      "child_list": false,
      "child": [{
        "child_name": "group1",
        "child_text": "group1",
        "child_color": "#d3ffce",
        "child_icon": "fa-pie-chart",
        "child_list": false,
        "child": [{
          "child_name": "page1",
          "child_text": "page1",
          "child_color": "#b0e0e6",
          "child_icon": "page1.png",
          "child_list": false
        }, {
          "child_name": "page2",
          "child_text": "page2",
          "child_color": "#c6e2ff",
          "child_icon": "page2.png",
          "child_list": false
        }, {
          "child_name": "page3",
          "child_text": "page3",
          "child_color": "#fa8072",
          "child_icon": "page3.png",
          "child_list": false
        }]
      }, {
        "child_name": "group2",
        "child_text": "group2",
        "child_color": "#ffb6c1",
        "child_icon": "fa-pie-chart",
        "child_list": false,
        "child": [{
          "child_name": "page1",
          "child_text": "page1",
          "child_color": "#ffc3a0",
          "child_icon": "page1.png",
          "child_list": false
        }, {
          "child_name": "page2",
          "child_text": "page2",
          "child_color": "#ffdab9",
          "child_icon": "page2.png",
          "child_list": false
        }, {
          "child_name": "page3",
          "child_text": "page3",
          "child_color": "#cbbeb5",
          "child_icon": "page3.png",
          "child_list": false
        }]
      }]
    }]
  }]
}]
