[{
    "country_iso": "AD",
    "countryname": "Andorra"
  },
  {
    "country_iso": "AE",
    "countryname": "United Arab Emirates"
  },
  {
    "country_iso": "AF",
    "countryname": "Afghanistan"
  },
  {
    "country_iso": "AG",
    "countryname": "Antigua And Barbuda"
  },
  {
    "country_iso": "AI",
    "countryname": "Anguilla"
  },
  {
    "country_iso": "AL",
    "countryname": "Albania"
  },
  {
    "country_iso": "AM",
    "countryname": "Armenia"
  },
  {
    "country_iso": "AN",
    "countryname": "Netherlands Antilles"
  },
  {
    "country_iso": "AO",
    "countryname": "Angola"
  },
  {
    "country_iso": "AQ",
    "countryname": "Antarctica"
  },
  {
    "country_iso": "AR",
    "countryname": "Argentina"
  },
  {
    "country_iso": "AS",
    "countryname": "American Samoa"
  },
  {
    "country_iso": "AT",
    "countryname": "Austria"
  },
  {
    "country_iso": "AU",
    "countryname": "Australia"
  },
  {
    "country_iso": "AW",
    "countryname": "Aruba"
  },
  {
    "country_iso": "AZ",
    "countryname": "Azerbaijan"
  },
  {
    "country_iso": "BA",
    "countryname": "Bosnia And Herzegovina"
  },
  {
    "country_iso": "BB",
    "countryname": "Barbados"
  },
  {
    "country_iso": "BD",
    "countryname": "Bangladesh"
  },
  {
    "country_iso": "BE",
    "countryname": "Belgium"
  },
  {
    "country_iso": "BF",
    "countryname": "Burkina Faso"
  },
  {
    "country_iso": "BG",
    "countryname": "Bulgaria"
  },
  {
    "country_iso": "BH",
    "countryname": "Bahrain"
  },
  {
    "country_iso": "BI",
    "countryname": "Burundi"
  },
  {
    "country_iso": "BJ",
    "countryname": "Benin"
  },
  {
    "country_iso": "BM",
    "countryname": "Bermuda"
  },
  {
    "country_iso": "BN",
    "countryname": "Brunei Darussalam"
  },
  {
    "country_iso": "BO",
    "countryname": "Bolivia"
  },
  {
    "country_iso": "BR",
    "countryname": "Brazil"
  },
  {
    "country_iso": "BS",
    "countryname": "Bahamas"
  },
  {
    "country_iso": "BT",
    "countryname": "Bhutan"
  },
  {
    "country_iso": "BV",
    "countryname": "Bouvet Island"
  },
  {
    "country_iso": "BW",
    "countryname": "Botswana"
  },
  {
    "country_iso": "BY",
    "countryname": "Belarus"
  },
  {
    "country_iso": "BZ",
    "countryname": "Belize"
  },
  {
    "country_iso": "CA",
    "countryname": "Canada"
  },
  {
    "country_iso": "CC",
    "countryname": "Cocos (Keeling) Islands"
  },
  {
    "country_iso": "CF",
    "countryname": "Central African Republic"
  },
  {
    "country_iso": "CG",
    "countryname": "Congo"
  },
  {
    "country_iso": "CH",
    "countryname": "Switzerland"
  },
  {
    "country_iso": "CI",
    "countryname": "Cote D'Ivoire"
  },
  {
    "country_iso": "CK",
    "countryname": "Cook Islands"
  },
  {
    "country_iso": "CL",
    "countryname": "Chile"
  },
  {
    "country_iso": "CM",
    "countryname": "Cameroon"
  },
  {
    "country_iso": "CN",
    "countryname": "China"
  },
  {
    "country_iso": "CO",
    "countryname": "Colombia"
  },
  {
    "country_iso": "CR",
    "countryname": "Costa Rica"
  },
  {
    "country_iso": "CU",
    "countryname": "Cuba"
  },
  {
    "country_iso": "CV",
    "countryname": "Cape Verde"
  },
  {
    "country_iso": "CX",
    "countryname": "Christmas Island"
  },
  {
    "country_iso": "CY",
    "countryname": "Cyprus"
  },
  {
    "country_iso": "CZ",
    "countryname": "Czech Republic"
  },
  {
    "country_iso": "DE",
    "countryname": "Germany"
  },
  {
    "country_iso": "DJ",
    "countryname": "Djibouti"
  },
  {
    "country_iso": "DK",
    "countryname": "Denmark"
  },
  {
    "country_iso": "DM",
    "countryname": "Dominica"
  },
  {
    "country_iso": "DO",
    "countryname": "Dominican Republic"
  },
  {
    "country_iso": "DZ",
    "countryname": "Algeria"
  },
  {
    "country_iso": "EC",
    "countryname": "Ecuador"
  },
  {
    "country_iso": "EE",
    "countryname": "Estonia"
  },
  {
    "country_iso": "EG",
    "countryname": "Egypt"
  },
  {
    "country_iso": "EH",
    "countryname": "Western Sahara"
  },
  {
    "country_iso": "ER",
    "countryname": "Eritrea"
  },
  {
    "country_iso": "ES",
    "countryname": "Spain"
  },
  {
    "country_iso": "ET",
    "countryname": "Ethiopia"
  },
  {
    "country_iso": "FI",
    "countryname": "Finland"
  },
  {
    "country_iso": "FJ",
    "countryname": "Fiji"
  },
  {
    "country_iso": "FK",
    "countryname": "Falkland Islands (Malvinas)"
  },
  {
    "country_iso": "FM",
    "countryname": "Micronesia, Federated States Of"
  },
  {
    "country_iso": "FO",
    "countryname": "Faroe Islands"
  },
  {
    "country_iso": "FR",
    "countryname": "France"
  },
  {
    "country_iso": "FX",
    "countryname": "France, Metropolitan"
  },
  {
    "country_iso": "GA",
    "countryname": "Gabon"
  },
  {
    "country_iso": "GB",
    "countryname": "United Kingdom"
  },
  {
    "country_iso": "GD",
    "countryname": "Grenada"
  },
  {
    "country_iso": "GE",
    "countryname": "Georgia"
  },
  {
    "country_iso": "GF",
    "countryname": "French Guiana"
  },
  {
    "country_iso": "GH",
    "countryname": "Ghana"
  },
  {
    "country_iso": "GI",
    "countryname": "Gibraltar"
  },
  {
    "country_iso": "GL",
    "countryname": "Greenland"
  },
  {
    "country_iso": "GM",
    "countryname": "Gambia"
  },
  {
    "country_iso": "GN",
    "countryname": "Guinea"
  },
  {
    "country_iso": "GP",
    "countryname": "Guadeloupe"
  },
  {
    "country_iso": "GQ",
    "countryname": "Equatorial Guinea"
  },
  {
    "country_iso": "GR",
    "countryname": "Greece"
  },
  {
    "country_iso": "GT",
    "countryname": "Guatemala"
  },
  {
    "country_iso": "GU",
    "countryname": "Guam"
  },
  {
    "country_iso": "GW",
    "countryname": "Guinea-Bissau"
  },
  {
    "country_iso": "GY",
    "countryname": "Guyana"
  },
  {
    "country_iso": "HK",
    "countryname": "Hong Kong"
  },
  {
    "country_iso": "HM",
    "countryname": "Heard Island & Mcdonald Islands"
  },
  {
    "country_iso": "HN",
    "countryname": "Honduras"
  },
  {
    "country_iso": "HR",
    "countryname": "Croatia (Local Name: Hrvatska)"
  },
  {
    "country_iso": "HT",
    "countryname": "Haiti"
  },
  {
    "country_iso": "HU",
    "countryname": "Hungary"
  },
  {
    "country_iso": "ID",
    "countryname": "Indonesia"
  },
  {
    "country_iso": "IE",
    "countryname": "Ireland"
  },
  {
    "country_iso": "IL",
    "countryname": "Israel"
  },
  {
    "country_iso": "IN",
    "countryname": "India"
  },
  {
    "country_iso": "INT",
    "countryname": "International"
  },
  {
    "country_iso": "IO",
    "countryname": "British Indian Ocean Territory"
  },
  {
    "country_iso": "IQ",
    "countryname": "Iraq"
  },
  {
    "country_iso": "IR",
    "countryname": "Iran, Islamic Republic Of"
  },
  {
    "country_iso": "IS",
    "countryname": "Iceland"
  },
  {
    "country_iso": "IT",
    "countryname": "Italy"
  },
  {
    "country_iso": "JM",
    "countryname": "Jamaica"
  },
  {
    "country_iso": "JO",
    "countryname": "Jordan"
  },
  {
    "country_iso": "JP",
    "countryname": "Japan"
  },
  {
    "country_iso": "KE",
    "countryname": "Kenya"
  },
  {
    "country_iso": "KG",
    "countryname": "Kyrgyzstan"
  },
  {
    "country_iso": "KH",
    "countryname": "Cambodia"
  },
  {
    "country_iso": "KI",
    "countryname": "Kiribati"
  },
  {
    "country_iso": "KM",
    "countryname": "Comoros"
  },
  {
    "country_iso": "KN",
    "countryname": "Saint Kitts And Nevis"
  },
  {
    "country_iso": "KP",
    "countryname": "Korea, Democratic People'S Republic Of"
  },
  {
    "country_iso": "KR",
    "countryname": "Korea, Republic Of"
  },
  {
    "country_iso": "KW",
    "countryname": "Kuwait"
  },
  {
    "country_iso": "KY",
    "countryname": "Cayman Islands"
  },
  {
    "country_iso": "KZ",
    "countryname": "Kazakhstan"
  },
  {
    "country_iso": "LA",
    "countryname": "Lao People'S Democratic Republic"
  },
  {
    "country_iso": "LB",
    "countryname": "Lebanon"
  },
  {
    "country_iso": "LC",
    "countryname": "Saint Lucia"
  },
  {
    "country_iso": "LI",
    "countryname": "Liechtenstein"
  },
  {
    "country_iso": "LK",
    "countryname": "Sri Lanka"
  },
  {
    "country_iso": "LR",
    "countryname": "Liberia"
  },
  {
    "country_iso": "LS",
    "countryname": "Lesotho"
  },
  {
    "country_iso": "LT",
    "countryname": "Lithuania"
  },
  {
    "country_iso": "LU",
    "countryname": "Luxembourg"
  },
  {
    "country_iso": "LV",
    "countryname": "Latvia"
  },
  {
    "country_iso": "LY",
    "countryname": "Libyan Arab Jamahiriya"
  },
  {
    "country_iso": "MA",
    "countryname": "Morocco"
  },
  {
    "country_iso": "MC",
    "countryname": "Monaco"
  },
  {
    "country_iso": "MD",
    "countryname": "Moldova, Republic Of"
  },
  {
    "country_iso": "MG",
    "countryname": "Madagascar"
  },
  {
    "country_iso": "MH",
    "countryname": "Marshall Islands"
  },
  {
    "country_iso": "MK",
    "countryname": "Macedonia, The Former Yugoslav Republic Of"
  },
  {
    "country_iso": "ML",
    "countryname": "Mali"
  },
  {
    "country_iso": "MM",
    "countryname": "Myanmar"
  },
  {
    "country_iso": "MN",
    "countryname": "Mongolia"
  },
  {
    "country_iso": "MO",
    "countryname": "Macau"
  },
  {
    "country_iso": "MP",
    "countryname": "Northern Mariana Islands"
  },
  {
    "country_iso": "MQ",
    "countryname": "Martinique"
  },
  {
    "country_iso": "MR",
    "countryname": "Mauritania"
  },
  {
    "country_iso": "MS",
    "countryname": "Montserrat"
  },
  {
    "country_iso": "MT",
    "countryname": "Malta"
  },
  {
    "country_iso": "MU",
    "countryname": "Mauritius"
  },
  {
    "country_iso": "MV",
    "countryname": "Maldives"
  },
  {
    "country_iso": "MW",
    "countryname": "Malawi"
  },
  {
    "country_iso": "MX",
    "countryname": "Mexico"
  },
  {
    "country_iso": "MY",
    "countryname": "Malaysia"
  },
  {
    "country_iso": "MZ",
    "countryname": "Mozambique"
  },
  {
    "country_iso": "NA",
    "countryname": "Namibia"
  },
  {
    "country_iso": "NC",
    "countryname": "New Caledonia"
  },
  {
    "country_iso": "NE",
    "countryname": "Niger"
  },
  {
    "country_iso": "NF",
    "countryname": "Norfolk Island"
  },
  {
    "country_iso": "NG",
    "countryname": "Nigeria"
  },
  {
    "country_iso": "NI",
    "countryname": "Nicaragua"
  },
  {
    "country_iso": "NL",
    "countryname": "Netherlands"
  },
  {
    "country_iso": "NO",
    "countryname": "Norway"
  },
  {
    "country_iso": "NP",
    "countryname": "Nepal"
  },
  {
    "country_iso": "NR",
    "countryname": "Nauru"
  },
  {
    "country_iso": "NU",
    "countryname": "Niue"
  },
  {
    "country_iso": "NZ",
    "countryname": "New Zealand"
  },
  {
    "country_iso": "OM",
    "countryname": "Oman"
  },
  {
    "country_iso": "PA",
    "countryname": "Panama"
  },
  {
    "country_iso": "PE",
    "countryname": "Peru"
  },
  {
    "country_iso": "PF",
    "countryname": "French Polynesia"
  },
  {
    "country_iso": "PG",
    "countryname": "Papua New Guinea"
  },
  {
    "country_iso": "PH",
    "countryname": "Philippines"
  },
  {
    "country_iso": "PK",
    "countryname": "Pakistan"
  },
  {
    "country_iso": "PL",
    "countryname": "Poland"
  },
  {
    "country_iso": "PM",
    "countryname": "Saint Pierre And Miquelon"
  },
  {
    "country_iso": "PN",
    "countryname": "Pitcairn"
  },
  {
    "country_iso": "PR",
    "countryname": "Puerto Rico"
  },
  {
    "country_iso": "PT",
    "countryname": "Portugal"
  },
  {
    "country_iso": "PW",
    "countryname": "Palau"
  },
  {
    "country_iso": "PY",
    "countryname": "Paraguay"
  },
  {
    "country_iso": "QA",
    "countryname": "Qatar"
  },
  {
    "country_iso": "RE",
    "countryname": "Reunion"
  },
  {
    "country_iso": "RO",
    "countryname": "Romania"
  },
  {
    "country_iso": "RU",
    "countryname": "Russian Federation"
  },
  {
    "country_iso": "RW",
    "countryname": "Rwanda"
  },
  {
    "country_iso": "SA",
    "countryname": "Saudi Arabia"
  },
  {
    "country_iso": "SB",
    "countryname": "Solomon Islands"
  },
  {
    "country_iso": "SC",
    "countryname": "Seychelles"
  },
  {
    "country_iso": "SD",
    "countryname": "Sudan"
  },
  {
    "country_iso": "SE",
    "countryname": "Sweden"
  },
  {
    "country_iso": "SG",
    "countryname": "Singapore"
  },
  {
    "country_iso": "SH",
    "countryname": "Saint Helena"
  },
  {
    "country_iso": "SI",
    "countryname": "Slovenia"
  },
  {
    "country_iso": "SJ",
    "countryname": "Svalbard And Jan Mayen Islands"
  },
  {
    "country_iso": "SK",
    "countryname": "Slovakia (Slovak Republic)"
  },
  {
    "country_iso": "SL",
    "countryname": "Sierra Leone"
  },
  {
    "country_iso": "SM",
    "countryname": "San Marino"
  },
  {
    "country_iso": "SN",
    "countryname": "Senegal"
  },
  {
    "country_iso": "SO",
    "countryname": "Somalia"
  },
  {
    "country_iso": "SR",
    "countryname": "Suriname"
  },
  {
    "country_iso": "ST",
    "countryname": "Sao Tome And Principe"
  },
  {
    "country_iso": "SV",
    "countryname": "El Salvador"
  },
  {
    "country_iso": "SY",
    "countryname": "Syrian Arab Republic"
  },
  {
    "country_iso": "SZ",
    "countryname": "Swaziland"
  },
  {
    "country_iso": "TC",
    "countryname": "Turks And Caicos Islands"
  },
  {
    "country_iso": "TD",
    "countryname": "Chad"
  },
  {
    "country_iso": "TF",
    "countryname": "French Southern Territories"
  },
  {
    "country_iso": "TG",
    "countryname": "Togo"
  },
  {
    "country_iso": "TH",
    "countryname": "Thailand"
  },
  {
    "country_iso": "TJ",
    "countryname": "Tajikistan"
  },
  {
    "country_iso": "TK",
    "countryname": "Tokelau"
  },
  {
    "country_iso": "TM",
    "countryname": "Turkmenistan"
  },
  {
    "country_iso": "TN",
    "countryname": "Tunisia"
  },
  {
    "country_iso": "TO",
    "countryname": "Tonga"
  },
  {
    "country_iso": "TR",
    "countryname": "Turkey"
  },
  {
    "country_iso": "TT",
    "countryname": "Trinidad And Tobago"
  },
  {
    "country_iso": "TV",
    "countryname": "Tuvalu"
  },
  {
    "country_iso": "TW",
    "countryname": "Taiwan, Province Of China"
  },
  {
    "country_iso": "TZ",
    "countryname": "Tanzania, United Republic Of"
  },
  {
    "country_iso": "UA",
    "countryname": "Ukraine"
  },
  {
    "country_iso": "UG",
    "countryname": "Uganda"
  },
  {
    "country_iso": "UM",
    "countryname": "United States Minor Outlying Islands"
  },
  {
    "country_iso": "US",
    "countryname": "United States"
  },
  {
    "country_iso": "UY",
    "countryname": "Uruguay"
  },
  {
    "country_iso": "UZ",
    "countryname": "Uzbekistan"
  },
  {
    "country_iso": "VA",
    "countryname": "Vatican City State (Holy See)"
  },
  {
    "country_iso": "VC",
    "countryname": "Saint Vincent And The Grenadines"
  },
  {
    "country_iso": "VE",
    "countryname": "Venezuela"
  },
  {
    "country_iso": "VG",
    "countryname": "Virgin Islands (British)"
  },
  {
    "country_iso": "VI",
    "countryname": "Virgin Islands (U.S.)"
  },
  {
    "country_iso": "VN",
    "countryname": "Viet Nam"
  },
  {
    "country_iso": "VU",
    "countryname": "Vanuatu"
  },
  {
    "country_iso": "WF",
    "countryname": "Wallis And Futuna Islands"
  },
  {
    "country_iso": "WS",
    "countryname": "Samoa"
  },
  {
    "country_iso": "YE",
    "countryname": "Yemen"
  },
  {
    "country_iso": "YT",
    "countryname": "Mayotte"
  },
  {
    "country_iso": "YU",
    "countryname": "Yugoslavia"
  },
  {
    "country_iso": "ZA",
    "countryname": "South Africa"
  },
  {
    "country_iso": "ZM",
    "countryname": "Zambia"
  },
  {
    "country_iso": "ZR",
    "countryname": "Zaire"
  },
  {
    "country_iso": "ZW",
    "countryname": "Zimbabwe"
  },
  {
    "country_iso": "ΙΝΤ",
    "countryname": "International"
  }
]
